%YAML 1.1
%TAG !u! tag:unity3d.com,2011:
--- !u!114 &11400000
MonoBehaviour:
  m_ObjectHideFlags: 0
  m_CorrespondingSourceObject: {fileID: 0}
  m_PrefabInstance: {fileID: 0}
  m_PrefabAsset: {fileID: 0}
  m_GameObject: {fileID: 0}
  m_Enabled: 1
  m_EditorHideFlags: 0
  m_Script: {fileID: 11500000, guid: 1492509fa98049c6a5cf7af1f5fbb2a9, type: 3}
  m_Name: R Groups
  m_EditorClassIdentifier: 
  displayName: R Groups
  icon: {fileID: 21300000, guid: ac536a147a6bc454e9ace914c6ee28ae, type: 3}
  performAction:
    m_PersistentCalls:
      m_Calls:
      - m_Target: {fileID: 11400000, guid: bcc67b2b2d832e442be7a369e71d0310, type: 2}
        m_MethodName: ShowFragmentTable
        m_Mode: 5
        m_Arguments:
          m_ObjectArgument: {fileID: 0}
          m_ObjectArgumentAssemblyTypeName: UnityEngine.Object, UnityEngine
          m_IntArgument: 0
          m_FloatArgument: 0
          m_StringArgument: RGroups
          m_BoolArgument: 0
        m_CallState: 2
    m_TypeName: NarupaBuilder.Tools.MenuItem+PerformActionEvent, NarupaBuilder, Version=0.0.0.0,
      Culture=neutral, PublicKeyToken=null
