%YAML 1.1
%TAG !u! tag:unity3d.com,2011:
--- !u!1001 &8986697924796729650
PrefabInstance:
  m_ObjectHideFlags: 0
  serializedVersion: 2
  m_Modification:
    m_TransformParent: {fileID: 0}
    m_Modifications:
    - target: {fileID: 1955414220813369418, guid: f432393c0806e8f41a1ca1d3e59b2aec,
        type: 3}
      propertyPath: m_Name
      value: Highlight
      objectReference: {fileID: 0}
    - target: {fileID: 1955414220813369408, guid: f432393c0806e8f41a1ca1d3e59b2aec,
        type: 3}
      propertyPath: m_LocalPosition.x
      value: 0
      objectReference: {fileID: 0}
    - target: {fileID: 1955414220813369408, guid: f432393c0806e8f41a1ca1d3e59b2aec,
        type: 3}
      propertyPath: m_LocalPosition.y
      value: 0
      objectReference: {fileID: 0}
    - target: {fileID: 1955414220813369408, guid: f432393c0806e8f41a1ca1d3e59b2aec,
        type: 3}
      propertyPath: m_LocalPosition.z
      value: 0
      objectReference: {fileID: 0}
    - target: {fileID: 1955414220813369408, guid: f432393c0806e8f41a1ca1d3e59b2aec,
        type: 3}
      propertyPath: m_LocalRotation.x
      value: 0
      objectReference: {fileID: 0}
    - target: {fileID: 1955414220813369408, guid: f432393c0806e8f41a1ca1d3e59b2aec,
        type: 3}
      propertyPath: m_LocalRotation.y
      value: 0
      objectReference: {fileID: 0}
    - target: {fileID: 1955414220813369408, guid: f432393c0806e8f41a1ca1d3e59b2aec,
        type: 3}
      propertyPath: m_LocalRotation.z
      value: 0
      objectReference: {fileID: 0}
    - target: {fileID: 1955414220813369408, guid: f432393c0806e8f41a1ca1d3e59b2aec,
        type: 3}
      propertyPath: m_LocalRotation.w
      value: 1
      objectReference: {fileID: 0}
    - target: {fileID: 1955414220813369408, guid: f432393c0806e8f41a1ca1d3e59b2aec,
        type: 3}
      propertyPath: m_RootOrder
      value: 0
      objectReference: {fileID: 0}
    - target: {fileID: 1955414220813369408, guid: f432393c0806e8f41a1ca1d3e59b2aec,
        type: 3}
      propertyPath: m_LocalEulerAnglesHint.x
      value: 0
      objectReference: {fileID: 0}
    - target: {fileID: 1955414220813369408, guid: f432393c0806e8f41a1ca1d3e59b2aec,
        type: 3}
      propertyPath: m_LocalEulerAnglesHint.y
      value: 0
      objectReference: {fileID: 0}
    - target: {fileID: 1955414220813369408, guid: f432393c0806e8f41a1ca1d3e59b2aec,
        type: 3}
      propertyPath: m_LocalEulerAnglesHint.z
      value: 0
      objectReference: {fileID: 0}
    - target: {fileID: 1955414220813369412, guid: f432393c0806e8f41a1ca1d3e59b2aec,
        type: 3}
      propertyPath: inputLinkCollection.Array.size
      value: 5
      objectReference: {fileID: 0}
    - target: {fileID: 1955414220813369412, guid: f432393c0806e8f41a1ca1d3e59b2aec,
        type: 3}
      propertyPath: node.mesh.value
      value: 
      objectReference: {fileID: 10210, guid: 0000000000000000e000000000000000, type: 0}
    - target: {fileID: 1955414220813369412, guid: f432393c0806e8f41a1ca1d3e59b2aec,
        type: 3}
      propertyPath: node.material.value
      value: 
      objectReference: {fileID: 2100000, guid: 9e9925246fd7cd14cb636fd31c33ebab, type: 2}
    - target: {fileID: 1955414220813369412, guid: f432393c0806e8f41a1ca1d3e59b2aec,
        type: 3}
      propertyPath: node.bondScale.value
      value: 0.065
      objectReference: {fileID: 0}
    - target: {fileID: 1955414220813369412, guid: f432393c0806e8f41a1ca1d3e59b2aec,
        type: 3}
      propertyPath: node.rendererColor.value.r
      value: 1
      objectReference: {fileID: 0}
    - target: {fileID: 1955414220813369412, guid: f432393c0806e8f41a1ca1d3e59b2aec,
        type: 3}
      propertyPath: node.rendererColor.value.g
      value: 1
      objectReference: {fileID: 0}
    - target: {fileID: 1955414220813369412, guid: f432393c0806e8f41a1ca1d3e59b2aec,
        type: 3}
      propertyPath: node.rendererColor.value.b
      value: 1
      objectReference: {fileID: 0}
    - target: {fileID: 1955414220813369412, guid: f432393c0806e8f41a1ca1d3e59b2aec,
        type: 3}
      propertyPath: inputLinkCollection.Array.data[3].sourceComponent
      value: 
      objectReference: {fileID: 7463639932623112565}
    - target: {fileID: 1955414220813369412, guid: f432393c0806e8f41a1ca1d3e59b2aec,
        type: 3}
      propertyPath: inputLinkCollection.Array.data[3].sourceFieldName
      value: bondOrders
      objectReference: {fileID: 0}
    - target: {fileID: 1955414220813369412, guid: f432393c0806e8f41a1ca1d3e59b2aec,
        type: 3}
      propertyPath: inputLinkCollection.Array.data[3].destinationFieldName
      value: bondOrders
      objectReference: {fileID: 0}
    - target: {fileID: 1955414220813369412, guid: f432393c0806e8f41a1ca1d3e59b2aec,
        type: 3}
      propertyPath: inputLinkCollection.Array.data[4].sourceComponent
      value: 
      objectReference: {fileID: 7463639932623112565}
    - target: {fileID: 1955414220813369412, guid: f432393c0806e8f41a1ca1d3e59b2aec,
        type: 3}
      propertyPath: inputLinkCollection.Array.data[4].sourceFieldName
      value: particlePositions
      objectReference: {fileID: 0}
    - target: {fileID: 1955414220813369412, guid: f432393c0806e8f41a1ca1d3e59b2aec,
        type: 3}
      propertyPath: inputLinkCollection.Array.data[4].destinationFieldName
      value: particlePositions
      objectReference: {fileID: 0}
    - target: {fileID: 1955414220813369419, guid: f432393c0806e8f41a1ca1d3e59b2aec,
        type: 3}
      propertyPath: inputLinkCollection.Array.size
      value: 3
      objectReference: {fileID: 0}
    - target: {fileID: 1955414220813369419, guid: f432393c0806e8f41a1ca1d3e59b2aec,
        type: 3}
      propertyPath: node.mesh.value
      value: 
      objectReference: {fileID: 10210, guid: 0000000000000000e000000000000000, type: 0}
    - target: {fileID: 1955414220813369419, guid: f432393c0806e8f41a1ca1d3e59b2aec,
        type: 3}
      propertyPath: node.material.value
      value: 
      objectReference: {fileID: 2100000, guid: 64dabc0c2482ed540add5e0ec6338291, type: 2}
    - target: {fileID: 1955414220813369419, guid: f432393c0806e8f41a1ca1d3e59b2aec,
        type: 3}
      propertyPath: inputLinkCollection.Array.data[1].sourceComponent
      value: 
      objectReference: {fileID: 7463639932623112567}
    - target: {fileID: 1955414220813369419, guid: f432393c0806e8f41a1ca1d3e59b2aec,
        type: 3}
      propertyPath: inputLinkCollection.Array.data[1].sourceFieldName
      value: scales
      objectReference: {fileID: 0}
    - target: {fileID: 1955414220813369419, guid: f432393c0806e8f41a1ca1d3e59b2aec,
        type: 3}
      propertyPath: inputLinkCollection.Array.data[1].destinationFieldName
      value: particleScales
      objectReference: {fileID: 0}
    - target: {fileID: 1955414220813369419, guid: f432393c0806e8f41a1ca1d3e59b2aec,
        type: 3}
      propertyPath: node.rendererScale.value
      value: 1.1
      objectReference: {fileID: 0}
    - target: {fileID: 1955414220813369419, guid: f432393c0806e8f41a1ca1d3e59b2aec,
        type: 3}
      propertyPath: node.rendererColor.value.r
      value: 1
      objectReference: {fileID: 0}
    - target: {fileID: 1955414220813369419, guid: f432393c0806e8f41a1ca1d3e59b2aec,
        type: 3}
      propertyPath: node.rendererColor.value.g
      value: 1
      objectReference: {fileID: 0}
    - target: {fileID: 1955414220813369419, guid: f432393c0806e8f41a1ca1d3e59b2aec,
        type: 3}
      propertyPath: node.rendererColor.value.b
      value: 1
      objectReference: {fileID: 0}
    - target: {fileID: 1955414220813369419, guid: f432393c0806e8f41a1ca1d3e59b2aec,
        type: 3}
      propertyPath: inputLinkCollection.Array.data[2].destinationFieldName
      value: particleFilter
      objectReference: {fileID: 0}
    - target: {fileID: 1955414220813369419, guid: f432393c0806e8f41a1ca1d3e59b2aec,
        type: 3}
      propertyPath: inputLinkCollection.Array.data[2].sourceFieldName
      value: particleFilter
      objectReference: {fileID: 0}
    - target: {fileID: 1955414220813369419, guid: f432393c0806e8f41a1ca1d3e59b2aec,
        type: 3}
      propertyPath: inputLinkCollection.Array.data[2].sourceComponent
      value: 
      objectReference: {fileID: 7463639932623112565}
    m_RemovedComponents:
    - {fileID: 1955414220813369414, guid: f432393c0806e8f41a1ca1d3e59b2aec, type: 3}
  m_SourcePrefab: {fileID: 100100000, guid: f432393c0806e8f41a1ca1d3e59b2aec, type: 3}
--- !u!114 &7463639932623112565 stripped
MonoBehaviour:
  m_CorrespondingSourceObject: {fileID: 1955414220813369415, guid: f432393c0806e8f41a1ca1d3e59b2aec,
    type: 3}
  m_PrefabInstance: {fileID: 8986697924796729650}
  m_PrefabAsset: {fileID: 0}
  m_GameObject: {fileID: 0}
  m_Enabled: 1
  m_EditorHideFlags: 0
  m_Script: {fileID: 11500000, guid: d3debffbae2948ccb8f413f906e7e8a7, type: 3}
  m_Name: 
  m_EditorClassIdentifier: 
--- !u!114 &7463639932623112567 stripped
MonoBehaviour:
  m_CorrespondingSourceObject: {fileID: 1955414220813369413, guid: f432393c0806e8f41a1ca1d3e59b2aec,
    type: 3}
  m_PrefabInstance: {fileID: 8986697924796729650}
  m_PrefabAsset: {fileID: 0}
  m_GameObject: {fileID: 0}
  m_Enabled: 1
  m_EditorHideFlags: 0
  m_Script: {fileID: 11500000, guid: 53e308a4d7b44dc8ae8f209b6e9ba088, type: 3}
  m_Name: 
  m_EditorClassIdentifier: 
