%YAML 1.1
%TAG !u! tag:unity3d.com,2011:
--- !u!1001 &8751978892197032826
PrefabInstance:
  m_ObjectHideFlags: 0
  serializedVersion: 2
  m_Modification:
    m_TransformParent: {fileID: 0}
    m_Modifications:
    - target: {fileID: 7463639932623112568, guid: 1f031a2703afd3943b158538fd0276de,
        type: 3}
      propertyPath: m_Name
      value: Select Highlight
      objectReference: {fileID: 0}
    - target: {fileID: 7463639932623112562, guid: 1f031a2703afd3943b158538fd0276de,
        type: 3}
      propertyPath: m_LocalPosition.x
      value: 0
      objectReference: {fileID: 0}
    - target: {fileID: 7463639932623112562, guid: 1f031a2703afd3943b158538fd0276de,
        type: 3}
      propertyPath: m_LocalPosition.y
      value: 0
      objectReference: {fileID: 0}
    - target: {fileID: 7463639932623112562, guid: 1f031a2703afd3943b158538fd0276de,
        type: 3}
      propertyPath: m_LocalPosition.z
      value: 0
      objectReference: {fileID: 0}
    - target: {fileID: 7463639932623112562, guid: 1f031a2703afd3943b158538fd0276de,
        type: 3}
      propertyPath: m_LocalRotation.x
      value: 0
      objectReference: {fileID: 0}
    - target: {fileID: 7463639932623112562, guid: 1f031a2703afd3943b158538fd0276de,
        type: 3}
      propertyPath: m_LocalRotation.y
      value: 0
      objectReference: {fileID: 0}
    - target: {fileID: 7463639932623112562, guid: 1f031a2703afd3943b158538fd0276de,
        type: 3}
      propertyPath: m_LocalRotation.z
      value: 0
      objectReference: {fileID: 0}
    - target: {fileID: 7463639932623112562, guid: 1f031a2703afd3943b158538fd0276de,
        type: 3}
      propertyPath: m_LocalRotation.w
      value: 1
      objectReference: {fileID: 0}
    - target: {fileID: 7463639932623112562, guid: 1f031a2703afd3943b158538fd0276de,
        type: 3}
      propertyPath: m_RootOrder
      value: 0
      objectReference: {fileID: 0}
    - target: {fileID: 7463639932623112562, guid: 1f031a2703afd3943b158538fd0276de,
        type: 3}
      propertyPath: m_LocalEulerAnglesHint.x
      value: 0
      objectReference: {fileID: 0}
    - target: {fileID: 7463639932623112562, guid: 1f031a2703afd3943b158538fd0276de,
        type: 3}
      propertyPath: m_LocalEulerAnglesHint.y
      value: 0
      objectReference: {fileID: 0}
    - target: {fileID: 7463639932623112562, guid: 1f031a2703afd3943b158538fd0276de,
        type: 3}
      propertyPath: m_LocalEulerAnglesHint.z
      value: 0
      objectReference: {fileID: 0}
    - target: {fileID: 7463639932623112566, guid: 1f031a2703afd3943b158538fd0276de,
        type: 3}
      propertyPath: node.rendererColor.value.r
      value: 0.3794055
      objectReference: {fileID: 0}
    - target: {fileID: 7463639932623112566, guid: 1f031a2703afd3943b158538fd0276de,
        type: 3}
      propertyPath: node.rendererColor.value.g
      value: 0.55986005
      objectReference: {fileID: 0}
    - target: {fileID: 7463639932623112566, guid: 1f031a2703afd3943b158538fd0276de,
        type: 3}
      propertyPath: node.rendererColor.value.b
      value: 0.9245283
      objectReference: {fileID: 0}
    - target: {fileID: 7463639932623112569, guid: 1f031a2703afd3943b158538fd0276de,
        type: 3}
      propertyPath: node.rendererColor.value.r
      value: 0.3794055
      objectReference: {fileID: 0}
    - target: {fileID: 7463639932623112569, guid: 1f031a2703afd3943b158538fd0276de,
        type: 3}
      propertyPath: node.rendererColor.value.g
      value: 0.55986005
      objectReference: {fileID: 0}
    - target: {fileID: 7463639932623112569, guid: 1f031a2703afd3943b158538fd0276de,
        type: 3}
      propertyPath: node.rendererColor.value.b
      value: 0.9245283
      objectReference: {fileID: 0}
    m_RemovedComponents: []
  m_SourcePrefab: {fileID: 100100000, guid: 1f031a2703afd3943b158538fd0276de, type: 3}
