%YAML 1.1
%TAG !u! tag:unity3d.com,2011:
--- !u!114 &11400000
MonoBehaviour:
  m_ObjectHideFlags: 0
  m_CorrespondingSourceObject: {fileID: 0}
  m_PrefabInstance: {fileID: 0}
  m_PrefabAsset: {fileID: 0}
  m_GameObject: {fileID: 0}
  m_Enabled: 1
  m_EditorHideFlags: 0
  m_Script: {fileID: 11500000, guid: 037338ae0c9540f0afbc7bec028359a5, type: 3}
  m_Name: Build Atom
  m_EditorClassIdentifier: 
  displayName: Build Atom
  image: {fileID: 21300000, guid: 1dc96028e98fec040898019001448146, type: 3}
  toolEnd: {fileID: 0}
  tools:
  - {fileID: 11400000, guid: 318a3a91ec41f51429a1576f1f7559ba, type: 2}
  - {fileID: 11400000, guid: 7f52cb6a9498e5a45a9531a9f59ff017, type: 2}
  - {fileID: 11400000, guid: d021825a89cafb24f929bbc3f774c379, type: 2}
  - {fileID: 11400000, guid: be1295b8dc0faca4c91e6644a9191a6e, type: 2}
  - {fileID: 11400000, guid: 3d7c4303f5f5f6d4883aae13f57fe410, type: 2}
  - {fileID: 11400000, guid: 964d8fa79da1aaf44ad328ee22f497ea, type: 2}
  - {fileID: 11400000, guid: 5150f8b0fab48974192e0ed4a0a6edaa, type: 2}
  - {fileID: 11400000, guid: 455a884f7655f6346b0e15424d917bcd, type: 2}
