%YAML 1.1
%TAG !u! tag:unity3d.com,2011:
--- !u!1001 &1310476633226825558
PrefabInstance:
  m_ObjectHideFlags: 0
  serializedVersion: 2
  m_Modification:
    m_TransformParent: {fileID: 383369585332716511}
    m_Modifications:
    - target: {fileID: 4691031732661825723, guid: 3cb8d13314402014c950ef700d96d350,
        type: 3}
      propertyPath: m_Name
      value: Left Menu Left Button (1)
      objectReference: {fileID: 0}
    - target: {fileID: 4691031732661825722, guid: 3cb8d13314402014c950ef700d96d350,
        type: 3}
      propertyPath: m_LocalPosition.x
      value: 0
      objectReference: {fileID: 0}
    - target: {fileID: 4691031732661825722, guid: 3cb8d13314402014c950ef700d96d350,
        type: 3}
      propertyPath: m_LocalPosition.y
      value: 0
      objectReference: {fileID: 0}
    - target: {fileID: 4691031732661825722, guid: 3cb8d13314402014c950ef700d96d350,
        type: 3}
      propertyPath: m_LocalPosition.z
      value: 0
      objectReference: {fileID: 0}
    - target: {fileID: 4691031732661825722, guid: 3cb8d13314402014c950ef700d96d350,
        type: 3}
      propertyPath: m_LocalRotation.x
      value: 0
      objectReference: {fileID: 0}
    - target: {fileID: 4691031732661825722, guid: 3cb8d13314402014c950ef700d96d350,
        type: 3}
      propertyPath: m_LocalRotation.y
      value: 0
      objectReference: {fileID: 0}
    - target: {fileID: 4691031732661825722, guid: 3cb8d13314402014c950ef700d96d350,
        type: 3}
      propertyPath: m_LocalRotation.z
      value: 0.7071068
      objectReference: {fileID: 0}
    - target: {fileID: 4691031732661825722, guid: 3cb8d13314402014c950ef700d96d350,
        type: 3}
      propertyPath: m_LocalRotation.w
      value: 0.7071068
      objectReference: {fileID: 0}
    - target: {fileID: 4691031732661825722, guid: 3cb8d13314402014c950ef700d96d350,
        type: 3}
      propertyPath: m_RootOrder
      value: 1
      objectReference: {fileID: 0}
    - target: {fileID: 4691031732661825722, guid: 3cb8d13314402014c950ef700d96d350,
        type: 3}
      propertyPath: m_LocalEulerAnglesHint.x
      value: 0
      objectReference: {fileID: 0}
    - target: {fileID: 4691031732661825722, guid: 3cb8d13314402014c950ef700d96d350,
        type: 3}
      propertyPath: m_LocalEulerAnglesHint.y
      value: 0
      objectReference: {fileID: 0}
    - target: {fileID: 4691031732661825722, guid: 3cb8d13314402014c950ef700d96d350,
        type: 3}
      propertyPath: m_LocalEulerAnglesHint.z
      value: 0
      objectReference: {fileID: 0}
    - target: {fileID: 4691031732661825722, guid: 3cb8d13314402014c950ef700d96d350,
        type: 3}
      propertyPath: m_AnchoredPosition.x
      value: 0
      objectReference: {fileID: 0}
    - target: {fileID: 4691031732661825722, guid: 3cb8d13314402014c950ef700d96d350,
        type: 3}
      propertyPath: m_AnchoredPosition.y
      value: 0
      objectReference: {fileID: 0}
    - target: {fileID: 4691031732661825722, guid: 3cb8d13314402014c950ef700d96d350,
        type: 3}
      propertyPath: m_SizeDelta.x
      value: 0
      objectReference: {fileID: 0}
    - target: {fileID: 4691031732661825722, guid: 3cb8d13314402014c950ef700d96d350,
        type: 3}
      propertyPath: m_SizeDelta.y
      value: 0
      objectReference: {fileID: 0}
    - target: {fileID: 4691031732661825722, guid: 3cb8d13314402014c950ef700d96d350,
        type: 3}
      propertyPath: m_AnchorMin.x
      value: 0
      objectReference: {fileID: 0}
    - target: {fileID: 4691031732661825722, guid: 3cb8d13314402014c950ef700d96d350,
        type: 3}
      propertyPath: m_AnchorMin.y
      value: 0
      objectReference: {fileID: 0}
    - target: {fileID: 4691031732661825722, guid: 3cb8d13314402014c950ef700d96d350,
        type: 3}
      propertyPath: m_AnchorMax.x
      value: 1
      objectReference: {fileID: 0}
    - target: {fileID: 4691031732661825722, guid: 3cb8d13314402014c950ef700d96d350,
        type: 3}
      propertyPath: m_AnchorMax.y
      value: 1
      objectReference: {fileID: 0}
    - target: {fileID: 4691031732661825722, guid: 3cb8d13314402014c950ef700d96d350,
        type: 3}
      propertyPath: m_Pivot.x
      value: 0.5
      objectReference: {fileID: 0}
    - target: {fileID: 4691031732661825722, guid: 3cb8d13314402014c950ef700d96d350,
        type: 3}
      propertyPath: m_Pivot.y
      value: 0.5
      objectReference: {fileID: 0}
    - target: {fileID: 3290966183665788620, guid: 3cb8d13314402014c950ef700d96d350,
        type: 3}
      propertyPath: m_LocalRotation.z
      value: -0.7071068
      objectReference: {fileID: 0}
    - target: {fileID: 3290966183665788620, guid: 3cb8d13314402014c950ef700d96d350,
        type: 3}
      propertyPath: m_LocalRotation.w
      value: 0.7071068
      objectReference: {fileID: 0}
    - target: {fileID: 6393304614865170192, guid: 3cb8d13314402014c950ef700d96d350,
        type: 3}
      propertyPath: m_textInfo.characterCount
      value: 9
      objectReference: {fileID: 0}
    - target: {fileID: 6393304614865170192, guid: 3cb8d13314402014c950ef700d96d350,
        type: 3}
      propertyPath: m_textInfo.spaceCount
      value: 1
      objectReference: {fileID: 0}
    - target: {fileID: 6393304614865170192, guid: 3cb8d13314402014c950ef700d96d350,
        type: 3}
      propertyPath: m_textInfo.wordCount
      value: 2
      objectReference: {fileID: 0}
    - target: {fileID: 6393304614865170192, guid: 3cb8d13314402014c950ef700d96d350,
        type: 3}
      propertyPath: m_textInfo.lineCount
      value: 1
      objectReference: {fileID: 0}
    - target: {fileID: 6393304614865170192, guid: 3cb8d13314402014c950ef700d96d350,
        type: 3}
      propertyPath: m_textInfo.pageCount
      value: 1
      objectReference: {fileID: 0}
    m_RemovedComponents: []
  m_SourcePrefab: {fileID: 100100000, guid: 3cb8d13314402014c950ef700d96d350, type: 3}
--- !u!1001 &4191118322445099041
PrefabInstance:
  m_ObjectHideFlags: 0
  serializedVersion: 2
  m_Modification:
    m_TransformParent: {fileID: 383369585332716511}
    m_Modifications:
    - target: {fileID: 2166011426372703496, guid: ea9d9303ade66e84d9ec197a0e64c6c2,
        type: 3}
      propertyPath: m_Name
      value: Left Menu Right Button
      objectReference: {fileID: 0}
    - target: {fileID: 2166011426372703497, guid: ea9d9303ade66e84d9ec197a0e64c6c2,
        type: 3}
      propertyPath: m_LocalPosition.x
      value: 0
      objectReference: {fileID: 0}
    - target: {fileID: 2166011426372703497, guid: ea9d9303ade66e84d9ec197a0e64c6c2,
        type: 3}
      propertyPath: m_LocalPosition.y
      value: 0
      objectReference: {fileID: 0}
    - target: {fileID: 2166011426372703497, guid: ea9d9303ade66e84d9ec197a0e64c6c2,
        type: 3}
      propertyPath: m_LocalPosition.z
      value: 0
      objectReference: {fileID: 0}
    - target: {fileID: 2166011426372703497, guid: ea9d9303ade66e84d9ec197a0e64c6c2,
        type: 3}
      propertyPath: m_LocalRotation.x
      value: 0
      objectReference: {fileID: 0}
    - target: {fileID: 2166011426372703497, guid: ea9d9303ade66e84d9ec197a0e64c6c2,
        type: 3}
      propertyPath: m_LocalRotation.y
      value: 0
      objectReference: {fileID: 0}
    - target: {fileID: 2166011426372703497, guid: ea9d9303ade66e84d9ec197a0e64c6c2,
        type: 3}
      propertyPath: m_LocalRotation.z
      value: -0.25881907
      objectReference: {fileID: 0}
    - target: {fileID: 2166011426372703497, guid: ea9d9303ade66e84d9ec197a0e64c6c2,
        type: 3}
      propertyPath: m_LocalRotation.w
      value: 0.9659259
      objectReference: {fileID: 0}
    - target: {fileID: 2166011426372703497, guid: ea9d9303ade66e84d9ec197a0e64c6c2,
        type: 3}
      propertyPath: m_RootOrder
      value: 3
      objectReference: {fileID: 0}
    - target: {fileID: 2166011426372703497, guid: ea9d9303ade66e84d9ec197a0e64c6c2,
        type: 3}
      propertyPath: m_LocalEulerAnglesHint.x
      value: 0
      objectReference: {fileID: 0}
    - target: {fileID: 2166011426372703497, guid: ea9d9303ade66e84d9ec197a0e64c6c2,
        type: 3}
      propertyPath: m_LocalEulerAnglesHint.y
      value: 0
      objectReference: {fileID: 0}
    - target: {fileID: 2166011426372703497, guid: ea9d9303ade66e84d9ec197a0e64c6c2,
        type: 3}
      propertyPath: m_LocalEulerAnglesHint.z
      value: 0
      objectReference: {fileID: 0}
    - target: {fileID: 2166011426372703497, guid: ea9d9303ade66e84d9ec197a0e64c6c2,
        type: 3}
      propertyPath: m_AnchoredPosition.x
      value: 0
      objectReference: {fileID: 0}
    - target: {fileID: 2166011426372703497, guid: ea9d9303ade66e84d9ec197a0e64c6c2,
        type: 3}
      propertyPath: m_AnchoredPosition.y
      value: 0
      objectReference: {fileID: 0}
    - target: {fileID: 2166011426372703497, guid: ea9d9303ade66e84d9ec197a0e64c6c2,
        type: 3}
      propertyPath: m_SizeDelta.x
      value: 0
      objectReference: {fileID: 0}
    - target: {fileID: 2166011426372703497, guid: ea9d9303ade66e84d9ec197a0e64c6c2,
        type: 3}
      propertyPath: m_SizeDelta.y
      value: 0
      objectReference: {fileID: 0}
    - target: {fileID: 2166011426372703497, guid: ea9d9303ade66e84d9ec197a0e64c6c2,
        type: 3}
      propertyPath: m_AnchorMin.x
      value: 0
      objectReference: {fileID: 0}
    - target: {fileID: 2166011426372703497, guid: ea9d9303ade66e84d9ec197a0e64c6c2,
        type: 3}
      propertyPath: m_AnchorMin.y
      value: 0
      objectReference: {fileID: 0}
    - target: {fileID: 2166011426372703497, guid: ea9d9303ade66e84d9ec197a0e64c6c2,
        type: 3}
      propertyPath: m_AnchorMax.x
      value: 1
      objectReference: {fileID: 0}
    - target: {fileID: 2166011426372703497, guid: ea9d9303ade66e84d9ec197a0e64c6c2,
        type: 3}
      propertyPath: m_AnchorMax.y
      value: 1
      objectReference: {fileID: 0}
    - target: {fileID: 2166011426372703497, guid: ea9d9303ade66e84d9ec197a0e64c6c2,
        type: 3}
      propertyPath: m_Pivot.x
      value: 0.5
      objectReference: {fileID: 0}
    - target: {fileID: 2166011426372703497, guid: ea9d9303ade66e84d9ec197a0e64c6c2,
        type: 3}
      propertyPath: m_Pivot.y
      value: 0.5
      objectReference: {fileID: 0}
    - target: {fileID: 8267781146507314047, guid: ea9d9303ade66e84d9ec197a0e64c6c2,
        type: 3}
      propertyPath: m_LocalRotation.z
      value: 0.25881907
      objectReference: {fileID: 0}
    - target: {fileID: 8267781146507314047, guid: ea9d9303ade66e84d9ec197a0e64c6c2,
        type: 3}
      propertyPath: m_LocalRotation.w
      value: 0.9659259
      objectReference: {fileID: 0}
    - target: {fileID: 553740202080864931, guid: ea9d9303ade66e84d9ec197a0e64c6c2,
        type: 3}
      propertyPath: m_textInfo.characterCount
      value: 9
      objectReference: {fileID: 0}
    - target: {fileID: 553740202080864931, guid: ea9d9303ade66e84d9ec197a0e64c6c2,
        type: 3}
      propertyPath: m_textInfo.spaceCount
      value: 1
      objectReference: {fileID: 0}
    - target: {fileID: 553740202080864931, guid: ea9d9303ade66e84d9ec197a0e64c6c2,
        type: 3}
      propertyPath: m_textInfo.wordCount
      value: 2
      objectReference: {fileID: 0}
    - target: {fileID: 553740202080864931, guid: ea9d9303ade66e84d9ec197a0e64c6c2,
        type: 3}
      propertyPath: m_textInfo.lineCount
      value: 1
      objectReference: {fileID: 0}
    - target: {fileID: 553740202080864931, guid: ea9d9303ade66e84d9ec197a0e64c6c2,
        type: 3}
      propertyPath: m_textInfo.pageCount
      value: 1
      objectReference: {fileID: 0}
    m_RemovedComponents: []
  m_SourcePrefab: {fileID: 100100000, guid: ea9d9303ade66e84d9ec197a0e64c6c2, type: 3}
--- !u!1001 &4517150311782751799
PrefabInstance:
  m_ObjectHideFlags: 0
  serializedVersion: 2
  m_Modification:
    m_TransformParent: {fileID: 383369585332716511}
    m_Modifications:
    - target: {fileID: 2166011426372703496, guid: ea9d9303ade66e84d9ec197a0e64c6c2,
        type: 3}
      propertyPath: m_Name
      value: Left Menu Right Button (2)
      objectReference: {fileID: 0}
    - target: {fileID: 2166011426372703497, guid: ea9d9303ade66e84d9ec197a0e64c6c2,
        type: 3}
      propertyPath: m_LocalPosition.x
      value: 0
      objectReference: {fileID: 0}
    - target: {fileID: 2166011426372703497, guid: ea9d9303ade66e84d9ec197a0e64c6c2,
        type: 3}
      propertyPath: m_LocalPosition.y
      value: 0
      objectReference: {fileID: 0}
    - target: {fileID: 2166011426372703497, guid: ea9d9303ade66e84d9ec197a0e64c6c2,
        type: 3}
      propertyPath: m_LocalPosition.z
      value: 0
      objectReference: {fileID: 0}
    - target: {fileID: 2166011426372703497, guid: ea9d9303ade66e84d9ec197a0e64c6c2,
        type: 3}
      propertyPath: m_LocalRotation.x
      value: 0
      objectReference: {fileID: 0}
    - target: {fileID: 2166011426372703497, guid: ea9d9303ade66e84d9ec197a0e64c6c2,
        type: 3}
      propertyPath: m_LocalRotation.y
      value: 0
      objectReference: {fileID: 0}
    - target: {fileID: 2166011426372703497, guid: ea9d9303ade66e84d9ec197a0e64c6c2,
        type: 3}
      propertyPath: m_LocalRotation.z
      value: -0.9659258
      objectReference: {fileID: 0}
    - target: {fileID: 2166011426372703497, guid: ea9d9303ade66e84d9ec197a0e64c6c2,
        type: 3}
      propertyPath: m_LocalRotation.w
      value: 0.25881907
      objectReference: {fileID: 0}
    - target: {fileID: 2166011426372703497, guid: ea9d9303ade66e84d9ec197a0e64c6c2,
        type: 3}
      propertyPath: m_RootOrder
      value: 4
      objectReference: {fileID: 0}
    - target: {fileID: 2166011426372703497, guid: ea9d9303ade66e84d9ec197a0e64c6c2,
        type: 3}
      propertyPath: m_LocalEulerAnglesHint.x
      value: 0
      objectReference: {fileID: 0}
    - target: {fileID: 2166011426372703497, guid: ea9d9303ade66e84d9ec197a0e64c6c2,
        type: 3}
      propertyPath: m_LocalEulerAnglesHint.y
      value: 0
      objectReference: {fileID: 0}
    - target: {fileID: 2166011426372703497, guid: ea9d9303ade66e84d9ec197a0e64c6c2,
        type: 3}
      propertyPath: m_LocalEulerAnglesHint.z
      value: 0
      objectReference: {fileID: 0}
    - target: {fileID: 2166011426372703497, guid: ea9d9303ade66e84d9ec197a0e64c6c2,
        type: 3}
      propertyPath: m_AnchoredPosition.x
      value: 0
      objectReference: {fileID: 0}
    - target: {fileID: 2166011426372703497, guid: ea9d9303ade66e84d9ec197a0e64c6c2,
        type: 3}
      propertyPath: m_AnchoredPosition.y
      value: 0
      objectReference: {fileID: 0}
    - target: {fileID: 2166011426372703497, guid: ea9d9303ade66e84d9ec197a0e64c6c2,
        type: 3}
      propertyPath: m_SizeDelta.x
      value: 0
      objectReference: {fileID: 0}
    - target: {fileID: 2166011426372703497, guid: ea9d9303ade66e84d9ec197a0e64c6c2,
        type: 3}
      propertyPath: m_SizeDelta.y
      value: 0
      objectReference: {fileID: 0}
    - target: {fileID: 2166011426372703497, guid: ea9d9303ade66e84d9ec197a0e64c6c2,
        type: 3}
      propertyPath: m_AnchorMin.x
      value: 0
      objectReference: {fileID: 0}
    - target: {fileID: 2166011426372703497, guid: ea9d9303ade66e84d9ec197a0e64c6c2,
        type: 3}
      propertyPath: m_AnchorMin.y
      value: 0
      objectReference: {fileID: 0}
    - target: {fileID: 2166011426372703497, guid: ea9d9303ade66e84d9ec197a0e64c6c2,
        type: 3}
      propertyPath: m_AnchorMax.x
      value: 1
      objectReference: {fileID: 0}
    - target: {fileID: 2166011426372703497, guid: ea9d9303ade66e84d9ec197a0e64c6c2,
        type: 3}
      propertyPath: m_AnchorMax.y
      value: 1
      objectReference: {fileID: 0}
    - target: {fileID: 2166011426372703497, guid: ea9d9303ade66e84d9ec197a0e64c6c2,
        type: 3}
      propertyPath: m_Pivot.x
      value: 0.5
      objectReference: {fileID: 0}
    - target: {fileID: 2166011426372703497, guid: ea9d9303ade66e84d9ec197a0e64c6c2,
        type: 3}
      propertyPath: m_Pivot.y
      value: 0.5
      objectReference: {fileID: 0}
    - target: {fileID: 8267781146507314047, guid: ea9d9303ade66e84d9ec197a0e64c6c2,
        type: 3}
      propertyPath: m_LocalRotation.z
      value: 0.9659258
      objectReference: {fileID: 0}
    - target: {fileID: 8267781146507314047, guid: ea9d9303ade66e84d9ec197a0e64c6c2,
        type: 3}
      propertyPath: m_LocalRotation.w
      value: 0.25881907
      objectReference: {fileID: 0}
    - target: {fileID: 553740202080864931, guid: ea9d9303ade66e84d9ec197a0e64c6c2,
        type: 3}
      propertyPath: m_textInfo.characterCount
      value: 9
      objectReference: {fileID: 0}
    - target: {fileID: 553740202080864931, guid: ea9d9303ade66e84d9ec197a0e64c6c2,
        type: 3}
      propertyPath: m_textInfo.spaceCount
      value: 1
      objectReference: {fileID: 0}
    - target: {fileID: 553740202080864931, guid: ea9d9303ade66e84d9ec197a0e64c6c2,
        type: 3}
      propertyPath: m_textInfo.wordCount
      value: 2
      objectReference: {fileID: 0}
    - target: {fileID: 553740202080864931, guid: ea9d9303ade66e84d9ec197a0e64c6c2,
        type: 3}
      propertyPath: m_textInfo.lineCount
      value: 1
      objectReference: {fileID: 0}
    - target: {fileID: 553740202080864931, guid: ea9d9303ade66e84d9ec197a0e64c6c2,
        type: 3}
      propertyPath: m_textInfo.pageCount
      value: 1
      objectReference: {fileID: 0}
    m_RemovedComponents: []
  m_SourcePrefab: {fileID: 100100000, guid: ea9d9303ade66e84d9ec197a0e64c6c2, type: 3}
--- !u!1001 &5192217335056330192
PrefabInstance:
  m_ObjectHideFlags: 0
  serializedVersion: 2
  m_Modification:
    m_TransformParent: {fileID: 383369585332716511}
    m_Modifications:
    - target: {fileID: 4691031732661825723, guid: 3cb8d13314402014c950ef700d96d350,
        type: 3}
      propertyPath: m_Name
      value: Left Menu Left Button
      objectReference: {fileID: 0}
    - target: {fileID: 4691031732661825722, guid: 3cb8d13314402014c950ef700d96d350,
        type: 3}
      propertyPath: m_LocalPosition.x
      value: 0
      objectReference: {fileID: 0}
    - target: {fileID: 4691031732661825722, guid: 3cb8d13314402014c950ef700d96d350,
        type: 3}
      propertyPath: m_LocalPosition.y
      value: 0
      objectReference: {fileID: 0}
    - target: {fileID: 4691031732661825722, guid: 3cb8d13314402014c950ef700d96d350,
        type: 3}
      propertyPath: m_LocalPosition.z
      value: 0
      objectReference: {fileID: 0}
    - target: {fileID: 4691031732661825722, guid: 3cb8d13314402014c950ef700d96d350,
        type: 3}
      propertyPath: m_LocalRotation.x
      value: 0
      objectReference: {fileID: 0}
    - target: {fileID: 4691031732661825722, guid: 3cb8d13314402014c950ef700d96d350,
        type: 3}
      propertyPath: m_LocalRotation.y
      value: 0
      objectReference: {fileID: 0}
    - target: {fileID: 4691031732661825722, guid: 3cb8d13314402014c950ef700d96d350,
        type: 3}
      propertyPath: m_LocalRotation.z
      value: 0.9659258
      objectReference: {fileID: 0}
    - target: {fileID: 4691031732661825722, guid: 3cb8d13314402014c950ef700d96d350,
        type: 3}
      propertyPath: m_LocalRotation.w
      value: 0.25881907
      objectReference: {fileID: 0}
    - target: {fileID: 4691031732661825722, guid: 3cb8d13314402014c950ef700d96d350,
        type: 3}
      propertyPath: m_RootOrder
      value: 0
      objectReference: {fileID: 0}
    - target: {fileID: 4691031732661825722, guid: 3cb8d13314402014c950ef700d96d350,
        type: 3}
      propertyPath: m_LocalEulerAnglesHint.x
      value: 0
      objectReference: {fileID: 0}
    - target: {fileID: 4691031732661825722, guid: 3cb8d13314402014c950ef700d96d350,
        type: 3}
      propertyPath: m_LocalEulerAnglesHint.y
      value: 0
      objectReference: {fileID: 0}
    - target: {fileID: 4691031732661825722, guid: 3cb8d13314402014c950ef700d96d350,
        type: 3}
      propertyPath: m_LocalEulerAnglesHint.z
      value: 0
      objectReference: {fileID: 0}
    - target: {fileID: 4691031732661825722, guid: 3cb8d13314402014c950ef700d96d350,
        type: 3}
      propertyPath: m_AnchoredPosition.x
      value: 0
      objectReference: {fileID: 0}
    - target: {fileID: 4691031732661825722, guid: 3cb8d13314402014c950ef700d96d350,
        type: 3}
      propertyPath: m_AnchoredPosition.y
      value: 0
      objectReference: {fileID: 0}
    - target: {fileID: 4691031732661825722, guid: 3cb8d13314402014c950ef700d96d350,
        type: 3}
      propertyPath: m_SizeDelta.x
      value: 0
      objectReference: {fileID: 0}
    - target: {fileID: 4691031732661825722, guid: 3cb8d13314402014c950ef700d96d350,
        type: 3}
      propertyPath: m_SizeDelta.y
      value: 0
      objectReference: {fileID: 0}
    - target: {fileID: 4691031732661825722, guid: 3cb8d13314402014c950ef700d96d350,
        type: 3}
      propertyPath: m_AnchorMin.x
      value: 0
      objectReference: {fileID: 0}
    - target: {fileID: 4691031732661825722, guid: 3cb8d13314402014c950ef700d96d350,
        type: 3}
      propertyPath: m_AnchorMin.y
      value: 0
      objectReference: {fileID: 0}
    - target: {fileID: 4691031732661825722, guid: 3cb8d13314402014c950ef700d96d350,
        type: 3}
      propertyPath: m_AnchorMax.x
      value: 1
      objectReference: {fileID: 0}
    - target: {fileID: 4691031732661825722, guid: 3cb8d13314402014c950ef700d96d350,
        type: 3}
      propertyPath: m_AnchorMax.y
      value: 1
      objectReference: {fileID: 0}
    - target: {fileID: 4691031732661825722, guid: 3cb8d13314402014c950ef700d96d350,
        type: 3}
      propertyPath: m_Pivot.x
      value: 0.5
      objectReference: {fileID: 0}
    - target: {fileID: 4691031732661825722, guid: 3cb8d13314402014c950ef700d96d350,
        type: 3}
      propertyPath: m_Pivot.y
      value: 0.5
      objectReference: {fileID: 0}
    - target: {fileID: 3290966183665788620, guid: 3cb8d13314402014c950ef700d96d350,
        type: 3}
      propertyPath: m_LocalRotation.z
      value: -0.9659258
      objectReference: {fileID: 0}
    - target: {fileID: 3290966183665788620, guid: 3cb8d13314402014c950ef700d96d350,
        type: 3}
      propertyPath: m_LocalRotation.w
      value: 0.25881907
      objectReference: {fileID: 0}
    - target: {fileID: 6393304614865170192, guid: 3cb8d13314402014c950ef700d96d350,
        type: 3}
      propertyPath: m_textInfo.characterCount
      value: 9
      objectReference: {fileID: 0}
    - target: {fileID: 6393304614865170192, guid: 3cb8d13314402014c950ef700d96d350,
        type: 3}
      propertyPath: m_textInfo.spaceCount
      value: 1
      objectReference: {fileID: 0}
    - target: {fileID: 6393304614865170192, guid: 3cb8d13314402014c950ef700d96d350,
        type: 3}
      propertyPath: m_textInfo.wordCount
      value: 2
      objectReference: {fileID: 0}
    - target: {fileID: 6393304614865170192, guid: 3cb8d13314402014c950ef700d96d350,
        type: 3}
      propertyPath: m_textInfo.lineCount
      value: 1
      objectReference: {fileID: 0}
    - target: {fileID: 6393304614865170192, guid: 3cb8d13314402014c950ef700d96d350,
        type: 3}
      propertyPath: m_textInfo.pageCount
      value: 1
      objectReference: {fileID: 0}
    m_RemovedComponents: []
  m_SourcePrefab: {fileID: 100100000, guid: 3cb8d13314402014c950ef700d96d350, type: 3}
--- !u!1001 &5250703487357551783
PrefabInstance:
  m_ObjectHideFlags: 0
  serializedVersion: 2
  m_Modification:
    m_TransformParent: {fileID: 0}
    m_Modifications:
    - target: {fileID: 569865362322210444, guid: cbd972d1c5fe6ab408d27340d7993cd4,
        type: 3}
      propertyPath: m_Name
      value: Left Menu
      objectReference: {fileID: 0}
    - target: {fileID: 569865362322210448, guid: cbd972d1c5fe6ab408d27340d7993cd4,
        type: 3}
      propertyPath: m_LocalPosition.x
      value: 0
      objectReference: {fileID: 0}
    - target: {fileID: 569865362322210448, guid: cbd972d1c5fe6ab408d27340d7993cd4,
        type: 3}
      propertyPath: m_LocalPosition.y
      value: 0
      objectReference: {fileID: 0}
    - target: {fileID: 569865362322210448, guid: cbd972d1c5fe6ab408d27340d7993cd4,
        type: 3}
      propertyPath: m_LocalPosition.z
      value: 0
      objectReference: {fileID: 0}
    - target: {fileID: 569865362322210448, guid: cbd972d1c5fe6ab408d27340d7993cd4,
        type: 3}
      propertyPath: m_LocalRotation.x
      value: 0
      objectReference: {fileID: 0}
    - target: {fileID: 569865362322210448, guid: cbd972d1c5fe6ab408d27340d7993cd4,
        type: 3}
      propertyPath: m_LocalRotation.y
      value: 0
      objectReference: {fileID: 0}
    - target: {fileID: 569865362322210448, guid: cbd972d1c5fe6ab408d27340d7993cd4,
        type: 3}
      propertyPath: m_LocalRotation.z
      value: 0
      objectReference: {fileID: 0}
    - target: {fileID: 569865362322210448, guid: cbd972d1c5fe6ab408d27340d7993cd4,
        type: 3}
      propertyPath: m_LocalRotation.w
      value: 1
      objectReference: {fileID: 0}
    - target: {fileID: 569865362322210448, guid: cbd972d1c5fe6ab408d27340d7993cd4,
        type: 3}
      propertyPath: m_RootOrder
      value: 0
      objectReference: {fileID: 0}
    - target: {fileID: 569865362322210448, guid: cbd972d1c5fe6ab408d27340d7993cd4,
        type: 3}
      propertyPath: m_LocalEulerAnglesHint.x
      value: 0
      objectReference: {fileID: 0}
    - target: {fileID: 569865362322210448, guid: cbd972d1c5fe6ab408d27340d7993cd4,
        type: 3}
      propertyPath: m_LocalEulerAnglesHint.y
      value: 0
      objectReference: {fileID: 0}
    - target: {fileID: 569865362322210448, guid: cbd972d1c5fe6ab408d27340d7993cd4,
        type: 3}
      propertyPath: m_LocalEulerAnglesHint.z
      value: 0
      objectReference: {fileID: 0}
    - target: {fileID: 569865362322210448, guid: cbd972d1c5fe6ab408d27340d7993cd4,
        type: 3}
      propertyPath: m_AnchoredPosition.x
      value: 0
      objectReference: {fileID: 0}
    - target: {fileID: 569865362322210448, guid: cbd972d1c5fe6ab408d27340d7993cd4,
        type: 3}
      propertyPath: m_AnchoredPosition.y
      value: 0
      objectReference: {fileID: 0}
    - target: {fileID: 569865362322210448, guid: cbd972d1c5fe6ab408d27340d7993cd4,
        type: 3}
      propertyPath: m_SizeDelta.x
      value: 192
      objectReference: {fileID: 0}
    - target: {fileID: 569865362322210448, guid: cbd972d1c5fe6ab408d27340d7993cd4,
        type: 3}
      propertyPath: m_SizeDelta.y
      value: 192
      objectReference: {fileID: 0}
    - target: {fileID: 569865362322210448, guid: cbd972d1c5fe6ab408d27340d7993cd4,
        type: 3}
      propertyPath: m_AnchorMin.x
      value: 0
      objectReference: {fileID: 0}
    - target: {fileID: 569865362322210448, guid: cbd972d1c5fe6ab408d27340d7993cd4,
        type: 3}
      propertyPath: m_AnchorMin.y
      value: 0
      objectReference: {fileID: 0}
    - target: {fileID: 569865362322210448, guid: cbd972d1c5fe6ab408d27340d7993cd4,
        type: 3}
      propertyPath: m_AnchorMax.x
      value: 0
      objectReference: {fileID: 0}
    - target: {fileID: 569865362322210448, guid: cbd972d1c5fe6ab408d27340d7993cd4,
        type: 3}
      propertyPath: m_AnchorMax.y
      value: 0
      objectReference: {fileID: 0}
    - target: {fileID: 569865362322210448, guid: cbd972d1c5fe6ab408d27340d7993cd4,
        type: 3}
      propertyPath: m_Pivot.x
      value: 0.5
      objectReference: {fileID: 0}
    - target: {fileID: 569865362322210448, guid: cbd972d1c5fe6ab408d27340d7993cd4,
        type: 3}
      propertyPath: m_Pivot.y
      value: 0.5
      objectReference: {fileID: 0}
    - target: {fileID: 2286498584651362561, guid: cbd972d1c5fe6ab408d27340d7993cd4,
        type: 3}
      propertyPath: angularOffset
      value: 150
      objectReference: {fileID: 0}
    m_RemovedComponents:
    - {fileID: 569865362322210451, guid: cbd972d1c5fe6ab408d27340d7993cd4, type: 3}
  m_SourcePrefab: {fileID: 100100000, guid: cbd972d1c5fe6ab408d27340d7993cd4, type: 3}
--- !u!224 &383369585332716511 stripped
RectTransform:
  m_CorrespondingSourceObject: {fileID: 5587911176230537080, guid: cbd972d1c5fe6ab408d27340d7993cd4,
    type: 3}
  m_PrefabInstance: {fileID: 5250703487357551783}
  m_PrefabAsset: {fileID: 0}
--- !u!1001 &7132686298858339869
PrefabInstance:
  m_ObjectHideFlags: 0
  serializedVersion: 2
  m_Modification:
    m_TransformParent: {fileID: 383369585332716511}
    m_Modifications:
    - target: {fileID: 4691031732661825723, guid: 3cb8d13314402014c950ef700d96d350,
        type: 3}
      propertyPath: m_Name
      value: Left Menu Left Button (2)
      objectReference: {fileID: 0}
    - target: {fileID: 4691031732661825722, guid: 3cb8d13314402014c950ef700d96d350,
        type: 3}
      propertyPath: m_LocalPosition.x
      value: 0
      objectReference: {fileID: 0}
    - target: {fileID: 4691031732661825722, guid: 3cb8d13314402014c950ef700d96d350,
        type: 3}
      propertyPath: m_LocalPosition.y
      value: 0
      objectReference: {fileID: 0}
    - target: {fileID: 4691031732661825722, guid: 3cb8d13314402014c950ef700d96d350,
        type: 3}
      propertyPath: m_LocalPosition.z
      value: 0
      objectReference: {fileID: 0}
    - target: {fileID: 4691031732661825722, guid: 3cb8d13314402014c950ef700d96d350,
        type: 3}
      propertyPath: m_LocalRotation.x
      value: 0
      objectReference: {fileID: 0}
    - target: {fileID: 4691031732661825722, guid: 3cb8d13314402014c950ef700d96d350,
        type: 3}
      propertyPath: m_LocalRotation.y
      value: 0
      objectReference: {fileID: 0}
    - target: {fileID: 4691031732661825722, guid: 3cb8d13314402014c950ef700d96d350,
        type: 3}
      propertyPath: m_LocalRotation.z
      value: 0.25881907
      objectReference: {fileID: 0}
    - target: {fileID: 4691031732661825722, guid: 3cb8d13314402014c950ef700d96d350,
        type: 3}
      propertyPath: m_LocalRotation.w
      value: 0.9659259
      objectReference: {fileID: 0}
    - target: {fileID: 4691031732661825722, guid: 3cb8d13314402014c950ef700d96d350,
        type: 3}
      propertyPath: m_RootOrder
      value: 2
      objectReference: {fileID: 0}
    - target: {fileID: 4691031732661825722, guid: 3cb8d13314402014c950ef700d96d350,
        type: 3}
      propertyPath: m_LocalEulerAnglesHint.x
      value: 0
      objectReference: {fileID: 0}
    - target: {fileID: 4691031732661825722, guid: 3cb8d13314402014c950ef700d96d350,
        type: 3}
      propertyPath: m_LocalEulerAnglesHint.y
      value: 0
      objectReference: {fileID: 0}
    - target: {fileID: 4691031732661825722, guid: 3cb8d13314402014c950ef700d96d350,
        type: 3}
      propertyPath: m_LocalEulerAnglesHint.z
      value: 0
      objectReference: {fileID: 0}
    - target: {fileID: 4691031732661825722, guid: 3cb8d13314402014c950ef700d96d350,
        type: 3}
      propertyPath: m_AnchoredPosition.x
      value: 0
      objectReference: {fileID: 0}
    - target: {fileID: 4691031732661825722, guid: 3cb8d13314402014c950ef700d96d350,
        type: 3}
      propertyPath: m_AnchoredPosition.y
      value: 0
      objectReference: {fileID: 0}
    - target: {fileID: 4691031732661825722, guid: 3cb8d13314402014c950ef700d96d350,
        type: 3}
      propertyPath: m_SizeDelta.x
      value: 0
      objectReference: {fileID: 0}
    - target: {fileID: 4691031732661825722, guid: 3cb8d13314402014c950ef700d96d350,
        type: 3}
      propertyPath: m_SizeDelta.y
      value: 0
      objectReference: {fileID: 0}
    - target: {fileID: 4691031732661825722, guid: 3cb8d13314402014c950ef700d96d350,
        type: 3}
      propertyPath: m_AnchorMin.x
      value: 0
      objectReference: {fileID: 0}
    - target: {fileID: 4691031732661825722, guid: 3cb8d13314402014c950ef700d96d350,
        type: 3}
      propertyPath: m_AnchorMin.y
      value: 0
      objectReference: {fileID: 0}
    - target: {fileID: 4691031732661825722, guid: 3cb8d13314402014c950ef700d96d350,
        type: 3}
      propertyPath: m_AnchorMax.x
      value: 1
      objectReference: {fileID: 0}
    - target: {fileID: 4691031732661825722, guid: 3cb8d13314402014c950ef700d96d350,
        type: 3}
      propertyPath: m_AnchorMax.y
      value: 1
      objectReference: {fileID: 0}
    - target: {fileID: 4691031732661825722, guid: 3cb8d13314402014c950ef700d96d350,
        type: 3}
      propertyPath: m_Pivot.x
      value: 0.5
      objectReference: {fileID: 0}
    - target: {fileID: 4691031732661825722, guid: 3cb8d13314402014c950ef700d96d350,
        type: 3}
      propertyPath: m_Pivot.y
      value: 0.5
      objectReference: {fileID: 0}
    - target: {fileID: 3290966183665788620, guid: 3cb8d13314402014c950ef700d96d350,
        type: 3}
      propertyPath: m_LocalRotation.z
      value: -0.25881907
      objectReference: {fileID: 0}
    - target: {fileID: 3290966183665788620, guid: 3cb8d13314402014c950ef700d96d350,
        type: 3}
      propertyPath: m_LocalRotation.w
      value: 0.9659259
      objectReference: {fileID: 0}
    - target: {fileID: 6393304614865170192, guid: 3cb8d13314402014c950ef700d96d350,
        type: 3}
      propertyPath: m_textInfo.characterCount
      value: 9
      objectReference: {fileID: 0}
    - target: {fileID: 6393304614865170192, guid: 3cb8d13314402014c950ef700d96d350,
        type: 3}
      propertyPath: m_textInfo.spaceCount
      value: 1
      objectReference: {fileID: 0}
    - target: {fileID: 6393304614865170192, guid: 3cb8d13314402014c950ef700d96d350,
        type: 3}
      propertyPath: m_textInfo.wordCount
      value: 2
      objectReference: {fileID: 0}
    - target: {fileID: 6393304614865170192, guid: 3cb8d13314402014c950ef700d96d350,
        type: 3}
      propertyPath: m_textInfo.lineCount
      value: 1
      objectReference: {fileID: 0}
    - target: {fileID: 6393304614865170192, guid: 3cb8d13314402014c950ef700d96d350,
        type: 3}
      propertyPath: m_textInfo.pageCount
      value: 1
      objectReference: {fileID: 0}
    m_RemovedComponents: []
  m_SourcePrefab: {fileID: 100100000, guid: 3cb8d13314402014c950ef700d96d350, type: 3}
