%YAML 1.1
%TAG !u! tag:unity3d.com,2011:
--- !u!114 &8274607325237091383
MonoBehaviour:
  m_ObjectHideFlags: 0
  m_CorrespondingSourceObject: {fileID: 0}
  m_PrefabInstance: {fileID: 0}
  m_PrefabAsset: {fileID: 0}
  m_GameObject: {fileID: 4385781724302258749}
  m_Enabled: 1
  m_EditorHideFlags: 0
  m_Script: {fileID: 11500000, guid: 44b56041a7184b70b43ab907a1463a69, type: 3}
  m_Name: 
  m_EditorClassIdentifier: 
--- !u!1001 &4266594101294271665
PrefabInstance:
  m_ObjectHideFlags: 0
  serializedVersion: 2
  m_Modification:
    m_TransformParent: {fileID: 0}
    m_Modifications:
    - target: {fileID: 569865362322210444, guid: cbd972d1c5fe6ab408d27340d7993cd4,
        type: 3}
      propertyPath: m_Name
      value: Main Tool Menu
      objectReference: {fileID: 0}
    - target: {fileID: 569865362322210448, guid: cbd972d1c5fe6ab408d27340d7993cd4,
        type: 3}
      propertyPath: m_LocalPosition.x
      value: 0
      objectReference: {fileID: 0}
    - target: {fileID: 569865362322210448, guid: cbd972d1c5fe6ab408d27340d7993cd4,
        type: 3}
      propertyPath: m_LocalPosition.y
      value: 0
      objectReference: {fileID: 0}
    - target: {fileID: 569865362322210448, guid: cbd972d1c5fe6ab408d27340d7993cd4,
        type: 3}
      propertyPath: m_LocalPosition.z
      value: 0
      objectReference: {fileID: 0}
    - target: {fileID: 569865362322210448, guid: cbd972d1c5fe6ab408d27340d7993cd4,
        type: 3}
      propertyPath: m_LocalRotation.x
      value: 0
      objectReference: {fileID: 0}
    - target: {fileID: 569865362322210448, guid: cbd972d1c5fe6ab408d27340d7993cd4,
        type: 3}
      propertyPath: m_LocalRotation.y
      value: 0
      objectReference: {fileID: 0}
    - target: {fileID: 569865362322210448, guid: cbd972d1c5fe6ab408d27340d7993cd4,
        type: 3}
      propertyPath: m_LocalRotation.z
      value: 0
      objectReference: {fileID: 0}
    - target: {fileID: 569865362322210448, guid: cbd972d1c5fe6ab408d27340d7993cd4,
        type: 3}
      propertyPath: m_LocalRotation.w
      value: 1
      objectReference: {fileID: 0}
    - target: {fileID: 569865362322210448, guid: cbd972d1c5fe6ab408d27340d7993cd4,
        type: 3}
      propertyPath: m_RootOrder
      value: 0
      objectReference: {fileID: 0}
    - target: {fileID: 569865362322210448, guid: cbd972d1c5fe6ab408d27340d7993cd4,
        type: 3}
      propertyPath: m_LocalEulerAnglesHint.x
      value: 0
      objectReference: {fileID: 0}
    - target: {fileID: 569865362322210448, guid: cbd972d1c5fe6ab408d27340d7993cd4,
        type: 3}
      propertyPath: m_LocalEulerAnglesHint.y
      value: 0
      objectReference: {fileID: 0}
    - target: {fileID: 569865362322210448, guid: cbd972d1c5fe6ab408d27340d7993cd4,
        type: 3}
      propertyPath: m_LocalEulerAnglesHint.z
      value: 0
      objectReference: {fileID: 0}
    - target: {fileID: 569865362322210448, guid: cbd972d1c5fe6ab408d27340d7993cd4,
        type: 3}
      propertyPath: m_AnchoredPosition.x
      value: 0.030029297
      objectReference: {fileID: 0}
    - target: {fileID: 569865362322210448, guid: cbd972d1c5fe6ab408d27340d7993cd4,
        type: 3}
      propertyPath: m_AnchoredPosition.y
      value: 1.2460022
      objectReference: {fileID: 0}
    - target: {fileID: 569865362322210448, guid: cbd972d1c5fe6ab408d27340d7993cd4,
        type: 3}
      propertyPath: m_SizeDelta.x
      value: 192
      objectReference: {fileID: 0}
    - target: {fileID: 569865362322210448, guid: cbd972d1c5fe6ab408d27340d7993cd4,
        type: 3}
      propertyPath: m_SizeDelta.y
      value: 192
      objectReference: {fileID: 0}
    - target: {fileID: 569865362322210448, guid: cbd972d1c5fe6ab408d27340d7993cd4,
        type: 3}
      propertyPath: m_AnchorMin.x
      value: 0
      objectReference: {fileID: 0}
    - target: {fileID: 569865362322210448, guid: cbd972d1c5fe6ab408d27340d7993cd4,
        type: 3}
      propertyPath: m_AnchorMin.y
      value: 0
      objectReference: {fileID: 0}
    - target: {fileID: 569865362322210448, guid: cbd972d1c5fe6ab408d27340d7993cd4,
        type: 3}
      propertyPath: m_AnchorMax.x
      value: 0
      objectReference: {fileID: 0}
    - target: {fileID: 569865362322210448, guid: cbd972d1c5fe6ab408d27340d7993cd4,
        type: 3}
      propertyPath: m_AnchorMax.y
      value: 0
      objectReference: {fileID: 0}
    - target: {fileID: 569865362322210448, guid: cbd972d1c5fe6ab408d27340d7993cd4,
        type: 3}
      propertyPath: m_Pivot.x
      value: 0.5
      objectReference: {fileID: 0}
    - target: {fileID: 569865362322210448, guid: cbd972d1c5fe6ab408d27340d7993cd4,
        type: 3}
      propertyPath: m_Pivot.y
      value: 0.5
      objectReference: {fileID: 0}
    - target: {fileID: 982596949540306535, guid: cbd972d1c5fe6ab408d27340d7993cd4,
        type: 3}
      propertyPath: m_hasFontAssetChanged
      value: 0
      objectReference: {fileID: 0}
    m_RemovedComponents:
    - {fileID: 569865362322210451, guid: cbd972d1c5fe6ab408d27340d7993cd4, type: 3}
  m_SourcePrefab: {fileID: 100100000, guid: cbd972d1c5fe6ab408d27340d7993cd4, type: 3}
--- !u!1 &4385781724302258749 stripped
GameObject:
  m_CorrespondingSourceObject: {fileID: 569865362322210444, guid: cbd972d1c5fe6ab408d27340d7993cd4,
    type: 3}
  m_PrefabInstance: {fileID: 4266594101294271665}
  m_PrefabAsset: {fileID: 0}
